{
  "routes": [
    {
      "method": "GET",
      "path": "/acteurs",
      "handler": "acteur.find",
      "config": {
        "policies": []
      }
    },
    {
      "method": "GET",
      "path": "/acteurs/count",
      "handler": "acteur.count",
      "config": {
        "policies": []
      }
    },
    {
      "method": "GET",
      "path": "/acteurs/:id",
      "handler": "acteur.findOne",
      "config": {
        "policies": []
      }
    },
    {
      "method": "POST",
      "path": "/acteurs",
      "handler": "acteur.create",
      "config": {
        "policies": []
      }
    },
    {
      "method": "PUT",
      "path": "/acteurs/:id",
      "handler": "acteur.update",
      "config": {
        "policies": []
      }
    },
    {
      "method": "DELETE",
      "path": "/acteurs/:id",
      "handler": "acteur.delete",
      "config": {
        "policies": []
      }
    }
  ]
}
